DS04 - Inference and Modeling
…
Code: Computing the average and standard deviation for each state

results <- polls_us_election_2016 %>%
    filter(state != "U.S." &
            !grepl("CD", "state") &
            enddate >= "2016-10-31" &
            (grade %in% c("A+", "A", "A-", "B+") | is.na(grade))) %>%
    mutate(spread = rawpoll_clinton/100 - rawpoll_trump/100) %>%
    group_by(state) %>%
    summarize(avg = mean(spread), sd = sd(spread), n = n()) %>%
    mutate(state = as.character(state))
# 10 closest races = battleground states
results %>% arrange(abs(avg))

## # A tibble: 47 x 4
##    state               avg     sd     n
##    <chr>             <dbl>  <dbl> <int>
##  1 Florida         0.00356 0.0163     7
##  2 North Carolina -0.00730 0.0306     9
##  3 Ohio           -0.0104  0.0252     6
##  4 Nevada          0.0169  0.0441     7
##  5 Iowa           -0.0197  0.0437     3
##  6 Michigan        0.0209  0.0203     6
##  7 Arizona        -0.0326  0.0270     9
##  8 Pennsylvania    0.0353  0.0116     9
##  9 New Mexico      0.0389  0.0226     6
## 10 Georgia        -0.0448  0.0238     4
## #  with 37 more rows
…
Code: Calculating the posterior mean and posterior standard error

Note there is a small error in the video code: B should be defined as sigma^2/(sigma^2 + tau^2).

mu <- 0
tau <- 0.02
# The original code commented below returns an error
#results %>% mutate(sigma = sd/sqrt(n), 
results %>% mutate(sigma = se,
                   B = sigma^2/ (sigma^2 + tau^2),
                   posterior_mean = B*mu + (1-B)*avg,
                   posterior_se = sqrt( 1 / (1/sigma^2 + 1/tau^2))) %>%
    arrange(abs(posterior_mean))

## # A tibble: 47 x 12
##    state      avg     sd     n electoral_votes clinton trump others  sigma     B
##    <chr>    <dbl>  <dbl> <int>           <int>   <dbl> <dbl>  <dbl>  <dbl> <dbl>
##  1 Flor  0.00356 0.0163     7              29    47.8  49      3.2 0.0999 0.961
##  2 Nort -0.00730 0.0306     9              15    46.2  49.8    4   0.0999 0.961
##  3 Ohio  -0.0104  0.0252     6              18    43.5  51.7    4.8 0.0999 0.961
##  4 Neva  0.0169  0.0441     7               6    47.9  45.5    6.6 0.0999 0.961
##  5 Iowa  -0.0197  0.0437     3               6    41.7  51.1    7.1 0.0999 0.961
##  6 Mich  0.0209  0.0203     6              16    47.3  47.5    5.2 0.0999 0.961
##  7 Ariz -0.0326  0.0270     9              11    45.1  48.7    6.2 0.0999 0.961
##  8 Penn  0.0353  0.0116     9              20    47.9  48.6    3.6 0.0999 0.961
##  9 New   0.0389  0.0226     6               5    48.3  40     11.7 0.0999 0.961
## 10 Geor -0.0448  0.0238     4              16    45.9  51      3.1 0.0999 0.961
## #  with 37 more rows, and 2 more variables: posterior_mean <dbl>,
## #   posterior_se <dbl>
…
