DS06 - Wrangling
…
Use the skip argument to skip all of the documentation rows so that the column names are c("year", "mean", "unc") or c("#", "year", "mean", "unc"). (The # column could be removed after import with, for example, select.

How many rows must be skipped? This may require some experimentation - this is normal for data wrangling.

co2_mauna_loa <- read_table(url, skip = 56) # skip documentation

## Parsed with column specification:
## cols(
##   `857637,M,19.21,18.57,125.5,1152,0.1053,0.1267,0.1323,0.08994,0.1917,0.05961,0.7275,1.193,4.837,102.5,0.006458,0.02306,0.02945,0.01538,0.01852,0.002608,26.14,28.14,170.1,2145,0.1624,0.3511,0.3879,0.2091,0.3537,0.08294` = col_character()
## )

co2_mauna_loa

## # A tibble: 512 x 1
##    `857637,M,19.21,18.57,125.5,1152,0.1053,0.1267,0.1323,0.08994,0.1917,0.~
##    <chr>                                                                   
##  1 857793,M,14.71,21.59,95.55,656.9,0.1137,0.1365,0.1293,0.08123,0.2027,0.~
##  2 857810,B,13.05,19.31,82.61,527.2,0.0806,0.03789,0.000692,0.004167,0.181~
##  3 858477,B,8.618,11.79,54.34,224.5,0.09752,0.05272,0.02061,0.007799,0.168~
##  4 858970,B,10.17,14.88,64.55,311.9,0.1134,0.08061,0.01084,0.0129,0.2743,0~
##  5 858981,B,8.598,20.98,54.66,221.8,0.1243,0.08963,0.03,0.009259,0.1828,0.~
##  6 858986,M,14.25,22.15,96.42,645.7,0.1049,0.2008,0.2135,0.08653,0.1949,0.~
##  7 859196,B,9.173,13.86,59.2,260.9,0.07721,0.08751,0.05988,0.0218,0.2341,0~
##  8 85922302,M,12.68,23.84,82.69,499,0.1122,0.1262,0.1128,0.06873,0.1905,0.~
##  9 859283,M,14.78,23.94,97.4,668.3,0.1172,0.1479,0.1267,0.09029,0.1953,0.0~
## 10 859464,B,9.465,21.01,60.11,269.4,0.1044,0.07773,0.02172,0.01504,0.1717,~
## # ... with 502 more rows
…
dat$key[1:5]

## [1] "1960_fertility"       "1960_fertility"       "1960_life_expectancy"
## [4] "1960_life_expectancy" "1961_fertility"

# separate on underscores
dat %>% separate(key, c("year", "variable_name"), "_")

## Warning: Expected 2 pieces. Additional pieces discarded in 112 rows [3, 4,
## 7, 8, 11, 12, 15, 16, 19, 20, 23, 24, 27, 28, 31, 32, 35, 36, 39, 40, ...].

## # A tibble: 224 x 4
##    country     year  variable_name value
##    <chr>       <chr> <chr>         <dbl>
##  1 Germany     1960  fertility      2.41
##  2 South Korea 1960  fertility      6.16
##  3 Germany     1960  life          69.3 
##  4 South Korea 1960  life          53.0 
##  5 Germany     1961  fertility      2.44
##  6 South Korea 1961  fertility      5.99
##  7 Germany     1961  life          69.8 
##  8 South Korea 1961  life          53.8 
##  9 Germany     1962  fertility      2.47
## 10 South Korea 1962  fertility      5.79
## # ... with 214 more rows

dat %>% separate(key, c("year", "variable_name"))

## Warning: Expected 2 pieces. Additional pieces discarded in 112 rows [3, 4,
## 7, 8, 11, 12, 15, 16, 19, 20, 23, 24, 27, 28, 31, 32, 35, 36, 39, 40, ...].

## # A tibble: 224 x 4
##    country     year  variable_name value
##    <chr>       <chr> <chr>         <dbl>
##  1 Germany     1960  fertility      2.41
##  2 South Korea 1960  fertility      6.16
##  3 Germany     1960  life          69.3 
##  4 South Korea 1960  life          53.0 
##  5 Germany     1961  fertility      2.44
##  6 South Korea 1961  fertility      5.99
##  7 Germany     1961  life          69.8 
##  8 South Korea 1961  life          53.8 
##  9 Germany     1962  fertility      2.47
## 10 South Korea 1962  fertility      5.79
## # ... with 214 more rows

# split on all underscores, pad empty cells with NA
dat %>% separate(key, c("year", "first_variable_name", "second_variable_name"), 
                 fill = "right")

## # A tibble: 224 x 5
##    country     year  first_variable_name second_variable_name value
##    <chr>       <chr> <chr>               <chr>                <dbl>
##  1 Germany     1960  fertility           <NA>                  2.41
##  2 South Korea 1960  fertility           <NA>                  6.16
##  3 Germany     1960  life                expectancy           69.3 
##  4 South Korea 1960  life                expectancy           53.0 
##  5 Germany     1961  fertility           <NA>                  2.44
##  6 South Korea 1961  fertility           <NA>                  5.99
##  7 Germany     1961  life                expectancy           69.8 
##  8 South Korea 1961  life                expectancy           53.8 
##  9 Germany     1962  fertility           <NA>                  2.47
## 10 South Korea 1962  fertility           <NA>                  5.79
## # ... with 214 more rows

# split on first underscore but keep life_expectancy merged
dat %>% separate(key, c("year", "variable_name"), sep = "_", extra = "merge")

## # A tibble: 224 x 4
##    country     year  variable_name   value
##    <chr>       <chr> <chr>           <dbl>
##  1 Germany     1960  fertility        2.41
##  2 South Korea 1960  fertility        6.16
##  3 Germany     1960  life_expectancy 69.3 
##  4 South Korea 1960  life_expectancy 53.0 
##  5 Germany     1961  fertility        2.44
##  6 South Korea 1961  fertility        5.99
##  7 Germany     1961  life_expectancy 69.8 
##  8 South Korea 1961  life_expectancy 53.8 
##  9 Germany     1962  fertility        2.47
## 10 South Korea 1962  fertility        5.79
## # ... with 214 more rows

# separate then spread
dat %>% separate(key, c("year", "variable_name"), sep = "_", extra = "merge") %>%
  spread(variable_name, value) 

## # A tibble: 112 x 4
##    country year  fertility life_expectancy
##    <chr>   <chr>     <dbl>           <dbl>
##  1 Germany 1960       2.41            69.3
##  2 Germany 1961       2.44            69.8
##  3 Germany 1962       2.47            70.0
##  4 Germany 1963       2.49            70.1
##  5 Germany 1964       2.49            70.7
##  6 Germany 1965       2.48            70.6
##  7 Germany 1966       2.44            70.8
##  8 Germany 1967       2.37            71.0
##  9 Germany 1968       2.28            70.6
## 10 Germany 1969       2.17            70.5
## # ... with 102 more rows

# separate then unite
dat %>% 
  separate(key, c("year", "first_variable_name", "second_variable_name"), fill = "right") %>%
  unite(variable_name, first_variable_name, second_variable_name, sep="_")

## # A tibble: 224 x 4
##    country     year  variable_name   value
##    <chr>       <chr> <chr>           <dbl>
##  1 Germany     1960  fertility_NA     2.41
##  2 South Korea 1960  fertility_NA     6.16
##  3 Germany     1960  life_expectancy 69.3 
##  4 South Korea 1960  life_expectancy 53.0 
##  5 Germany     1961  fertility_NA     2.44
##  6 South Korea 1961  fertility_NA     5.99
##  7 Germany     1961  life_expectancy 69.8 
##  8 South Korea 1961  life_expectancy 53.8 
##  9 Germany     1962  fertility_NA     2.47
## 10 South Korea 1962  fertility_NA     5.79
## # ... with 214 more rows

# full code for tidying data
dat %>% 
  separate(key, c("year", "first_variable_name", "second_variable_name"), fill = "right") %>%
  unite(variable_name, first_variable_name, second_variable_name, sep="_") %>%
  spread(variable_name, value) %>%
  rename(fertility = fertility_NA)

## # A tibble: 112 x 4
##    country year  fertility life_expectancy
##    <chr>   <chr>     <dbl>           <dbl>
##  1 Germany 1960       2.41            69.3
##  2 Germany 1961       2.44            69.8
##  3 Germany 1962       2.47            70.0
##  4 Germany 1963       2.49            70.1
##  5 Germany 1964       2.49            70.7
##  6 Germany 1965       2.48            70.6
##  7 Germany 1966       2.44            70.8
##  8 Germany 1967       2.37            71.0
##  9 Germany 1968       2.28            70.6
## 10 Germany 1969       2.17            70.5
## # ... with 102 more rows
…
Also Inspect the Master data frame, which has demographic information for all players:

Master %>% as_tibble()

## # A tibble: 19,617 x 26
##    playerID birthYear birthMonth birthDay birthCountry birthState birthCity
##    <chr>        <int>      <int>    <int> <chr>        <chr>      <chr>    
##  1 aardsda~      1981         12       27 USA          CO         Denver   
##  2 aaronha~      1934          2        5 USA          AL         Mobile   
##  3 aaronto~      1939          8        5 USA          AL         Mobile   
##  4 aasedo01      1954          9        8 USA          CA         Orange   
##  5 abadan01      1972          8       25 USA          FL         Palm Bea~
##  6 abadfe01      1985         12       17 D.R.         La Romana  La Romana
##  7 abadijo~      1850         11        4 USA          PA         Philadel~
##  8 abbated~      1877          4       15 USA          PA         Latrobe  
##  9 abbeybe~      1869         11       11 USA          VT         Essex    
## 10 abbeych~      1866         10       14 USA          NE         Falls Ci~
## # ... with 19,607 more rows, and 19 more variables: deathYear <int>,
## #   deathMonth <int>, deathDay <int>, deathCountry <chr>,
## #   deathState <chr>, deathCity <chr>, nameFirst <chr>, nameLast <chr>,
## #   nameGiven <chr>, weight <int>, height <int>, bats <fct>, throws <fct>,
## #   debut <chr>, finalGame <chr>, retroID <chr>, bbrefID <chr>,
## #   deathDate <date>, birthDate <date>
…
# the simplify argument makes str_split return a matrix instead of a list
x <- str_split(lines, ",", simplify = TRUE) 
col_names <- x[1,]
x <- x[-1,]
x %>% as_data_frame() %>%
  setNames(col_names) %>%
  mutate_all(parse_guess)

## Warning: `as_data_frame()` is deprecated, use `as_tibble()` (but mind the new semantics).
## This warning is displayed once per session.

## # A tibble: 51 x 5
##    state                abb   region    population total
##    <chr>                <chr> <chr>          <dbl> <dbl>
##  1 Alabama              AL    South        4779736   135
##  2 Alaska               AK    West          710231    19
##  3 Arizona              AZ    West         6392017   232
##  4 Arkansas             AR    South        2915918    93
##  5 California           CA    West        37253956  1257
##  6 Colorado             CO    West         5029196    65
##  7 Connecticut          CT    Northeast    3574097    97
##  8 Delaware             DE    South         897934    38
##  9 District of Columbia DC    South         601723    99
## 10 Florida              FL    South       19687653   669
## # ... with 41 more rows
…
Now we are ready to extract the words for all our tweets.

tweet_words <- campaign_tweets %>% 
  mutate(text = str_replace_all(text, "https://t.co/[A-Za-z\\d]+|&amp;", ""))  %>%
  unnest_tokens(word, text, token = "regex", pattern = pattern) 

And we can now answer questions such as what are the most commonly used words?

tweet_words %>% 
  count(word) %>%
  arrange(desc(n))

## # A tibble: 6,211 x 2
##    word      n
##    <chr> <int>
##  1 the    2335
##  2 to     1413
##  3 and    1246
##  4 a      1210
##  5 in     1189
##  6 i      1161
##  7 you    1000
##  8 of      983
##  9 is      944
## 10 on      880
## # ... with 6,201 more rows

It is not surprising that these are the top words. The top words are not informative. The tidytext package has database of these commonly used words, referred to as stop words, in text mining:

stop_words

## # A tibble: 1,149 x 2
##    word        lexicon
##    <chr>       <chr>  
##  1 a           SMART  
##  2 a's         SMART  
##  3 able        SMART  
##  4 about       SMART  
##  5 above       SMART  
##  6 according   SMART  
##  7 accordingly SMART  
##  8 across      SMART  
##  9 actually    SMART  
## 10 after       SMART  
## # ... with 1,139 more rows
…
Now that we have all our words in a table, along with information about what device was used to compose the tweet they came from, we can start exploring which words are more common when comparing Android to iPhone.

For each word we want to know if it is more likely to come from an Android tweet or an iPhone tweet. We previously introduced the odds ratio, a summary statistic useful for quantifying these differences. For each device and a given word, lets call it \(y\), we compute the odds or the ratio between the proportion of words that are \(y\) and not \(y\) and compute the ratio of those odds. Here we will have many proportions that are 0 so we use the 0.5 correction.

android_iphone_or <- tweet_words %>%
  count(word, source) %>%
  spread(source, n, fill = 0) %>%
  mutate(or = (Android + 0.5) / (sum(Android) - Android + 0.5) / 
           ( (iPhone + 0.5) / (sum(iPhone) - iPhone + 0.5)))
android_iphone_or %>% arrange(desc(or))

## # A tibble: 5,509 x 4
##    word      Android iPhone    or
##    <chr>       <dbl>  <dbl> <dbl>
##  1 mails          22      0  39.3
##  2 poor           13      0  23.6
##  3 poorly         12      0  21.8
##  4 @cbsnews       11      0  20.1
##  5 bosses         11      0  20.1
##  6 turnberry      11      0  20.1
##  7 angry          10      0  18.3
##  8 write          10      0  18.3
##  9 brexit          9      0  16.6
## 10 defend          9      0  16.6
## # ... with 5,499 more rows

android_iphone_or %>% arrange(or)

## # A tibble: 5,509 x 4
##    word                   Android iPhone      or
##    <chr>                    <dbl>  <dbl>   <dbl>
##  1 #makeamericagreatagain       0    296 0.00144
##  2 #americafirst                0     71 0.00607
##  3 #draintheswamp               0     63 0.00683
##  4 #trump2016                   3    412 0.00718
##  5 #votetrump                   0     56 0.00769
##  6 join                         1    157 0.00821
##  7 #imwithyou                   0     51 0.00843
##  8 #crookedhillary              0     30 0.0143 
##  9 #fitn                        0     30 0.0143 
## 10 #gopdebate                   0     30 0.0143 
## # ... with 5,499 more rows

Given that several of these words are overall low frequency words we can impose a filter based on the total frequency like this:

android_iphone_or %>% filter(Android+iPhone > 100) %>%
  arrange(desc(or))

## # A tibble: 30 x 4
##    word        Android iPhone    or
##    <chr>         <dbl>  <dbl> <dbl>
##  1 @cnn            104     18  4.95
##  2 bad             104     26  3.45
##  3 crooked         157     49  2.79
##  4 ted              85     28  2.62
##  5 interviewed      76     25  2.62
##  6 media            77     26  2.56
##  7 cruz            116     46  2.19
##  8 hillary         290    119  2.14
##  9 win              74     30  2.14
## 10 president        84     35  2.08
## # ... with 20 more rows

android_iphone_or %>% filter(Android+iPhone > 100) %>%
  arrange(or)

## # A tibble: 30 x 4
##    word                   Android iPhone      or
##    <chr>                    <dbl>  <dbl>   <dbl>
##  1 #makeamericagreatagain       0    296 0.00144
##  2 #trump2016                   3    412 0.00718
##  3 join                         1    157 0.00821
##  4 tomorrow                    25    101 0.218  
##  5 vote                        46     67 0.600  
##  6 america                    114    141 0.703  
##  7 tonight                     71     84 0.737  
##  8 iowa                        62     65 0.831  
##  9 poll                       117    103 0.990  
## 10 trump                      112     92 1.06   
## # ... with 20 more rows
…
In sentiment analysis we assign a word to one or more sentiment. Although this approach will miss context dependent sentiments, such as sarcasm, when performed on large numbers of words, summaries can provide insights.

The first step in sentiment analysis is to assign a sentiment to each word. The tidytext package includes several maps or lexicons in the object sentiments:

table(sentiments$lexicon)

## Warning: Unknown or uninitialised column: 'lexicon'.

## < table of extent 0 >

The bing lexicon divides words into positive and negative. We can see this using the tidytext function get_sentiments:

get_sentiments("bing")

## # A tibble: 6,786 x 2
##    word        sentiment
##    <chr>       <chr>    
##  1 2-faces     negative 
##  2 abnormal    negative 
##  3 abolish     negative 
##  4 abominable  negative 
##  5 abominably  negative 
##  6 abominate   negative 
##  7 abomination negative 
##  8 abort       negative 
##  9 aborted     negative 
## 10 aborts      negative 
## # ... with 6,776 more rows

The AFINN lexicon assigns a score between -5 and 5, with -5 the most negative and 5 the most positive.

get_sentiments("afinn")

## # A tibble: 2,477 x 2
##    word       value
##    <chr>      <dbl>
##  1 abandon       -2
##  2 abandoned     -2
##  3 abandons      -2
##  4 abducted      -2
##  5 abduction     -2
##  6 abductions    -2
##  7 abhor         -3
##  8 abhorred      -3
##  9 abhorrent     -3
## 10 abhors        -3
## # ... with 2,467 more rows
…
Project Gutenberg is a digital archive of public domain books. The R package gutenbergr facilitates the importation of these texts into R. We will combine this with the tidyverse and tidytext libraries to practice text mining.

Use these libraries and options:

library(tidyverse)
library(gutenbergr)
library(tidytext)
options(digits = 3)

You can see the books and documents available in gutenbergr like this:

gutenberg_metadata

## # A tibble: 51,997 x 8
##    gutenberg_id title author gutenberg_autho~ language gutenberg_books~
##           <int> <chr> <chr>             <int> <chr>    <chr>           
##  1            0 <NA>  <NA>                 NA en       <NA>            
##  2            1 The ~ Jeffe~             1638 en       United States L~
##  3            2 "The~ Unite~                1 en       American Revolu~
##  4            3 John~ Kenne~             1666 en       <NA>            
##  5            4 "Lin~ Linco~                3 en       US Civil War    
##  6            5 The ~ Unite~                1 en       American Revolu~
##  7            6 Give~ Henry~                4 en       American Revolu~
##  8            7 The ~ <NA>                 NA en       <NA>            
##  9            8 Abra~ Linco~                3 en       US Civil War    
## 10            9 Abra~ Linco~                3 en       US Civil War    
## # ... with 51,987 more rows, and 2 more variables: rights <chr>,
## #   has_text <lgl>
…
